## Interface: 70300
## LoadOnDemand: 1

## Title: Lib: SharedMedia-3.0
## Notes: Shared handling of media data (fonts, sounds, textures, ...) between addons.
## Author: Elkano
## Version: 3.0-100
## X-Website: http://www.wowace.com/projects/libsharedmedia-3-0/
## X-Category: Library

## X-Revision: 100
## X-Date: 2018-03-19T20:23:06Z

LibSharedMedia-3.0\lib.xml

