## Interface: 70300
## Title: Lib: HereBeDragons
## Notes: HereBeDragons is a data API for the World of Warcraft mapping system
## Author: Nevcairiel, Warpten
## Version: @project-version@
## Dependencies: LibStub

HereBeDragons-1.0.lua
